Restador1/simulation/qsim/Restador1.msim.vcd
$comment
	File created using the following command:
		vcd file Restador1.msim.vcd -direction
$end
$date
	Mon Oct 05 09:24:17 2015
$end
$version
	ModelSim Version 10.1d
$end
$timescale
	1ps
$end
$scope module Restador1_vlg_vec_tst $end
$var reg 1 ! entrada $end
$var reg 8 " numeroA [7:0] $end
$var reg 8 # numeroB [7:0] $end
$var wire 1 $ salida [8] $end
$var wire 1 % salida [7] $end
$var wire 1 & salida [6] $end
$var wire 1 ' salida [5] $end
$var wire 1 ( salida [4] $end
$var wire 1 ) salida [3] $end
$var wire 1 * salida [2] $end
$var wire 1 + salida [1] $end
$var wire 1 , salida [0] $end
$var wire 1 - sampler $end
$scope module i1 $end
$var wire 1 . gnd $end
$var wire 1 / vcc $end
$var wire 1 0 unknown $end
$var tri1 1 1 devclrn $end
$var tri1 1 2 devpor $end
$var tri1 1 3 devoe $end
$var wire 1 4 elemento1|SFA~0_combout $end
$var wire 1 5 entrada~combout $end
$var wire 1 6 elemento1|COFA~0_combout $end
$var wire 1 7 elemento2|SFA~combout $end
$var wire 1 8 elemento2|COFA~0_combout $end
$var wire 1 9 elemento3|SFA~0_combout $end
$var wire 1 : elemento3|COFA~0_combout $end
$var wire 1 ; elemento4|SFA~0_combout $end
$var wire 1 < elemento4|COFA~0_combout $end
$var wire 1 = elemento5|SFA~0_combout $end
$var wire 1 > elemento5|COFA~0_combout $end
$var wire 1 ? elemento6|SFA~0_combout $end
$var wire 1 @ elemento6|COFA~0_combout $end
$var wire 1 A elemento7|SFA~0_combout $end
$var wire 1 B elemento7|COFA~0_combout $end
$var wire 1 C elemento8|SFA~0_combout $end
$var wire 1 D elemento8|COFA~0_combout $end
$var wire 1 E numeroA~combout [7] $end
$var wire 1 F numeroA~combout [6] $end
$var wire 1 G numeroA~combout [5] $end
$var wire 1 H numeroA~combout [4] $end
$var wire 1 I numeroA~combout [3] $end
$var wire 1 J numeroA~combout [2] $end
$var wire 1 K numeroA~combout [1] $end
$var wire 1 L numeroA~combout [0] $end
$var wire 1 M numeroB~combout [7] $end
$var wire 1 N numeroB~combout [6] $end
$var wire 1 O numeroB~combout [5] $end
$var wire 1 P numeroB~combout [4] $end
$var wire 1 Q numeroB~combout [3] $end
$var wire 1 R numeroB~combout [2] $end
$var wire 1 S numeroB~combout [1] $end
$var wire 1 T numeroB~combout [0] $end
$upscope $end
$upscope $end
$enddefinitions $end
#0
$dumpvars
0!
b0 "
b0 #
0,
0+
0*
0)
0(
0'
0&
0%
0$
x-
0.
1/
x0
11
12
13
04
05
06
07
08
09
0:
0;
0<
0=
0>
0?
0@
0A
0B
0C
0D
0L
0K
0J
0I
0H
0G
0F
0E
0T
0S
0R
0Q
0P
0O
0N
0M
$end
#100000
1!
b10 "
b1 #
15
1T
1K
0-
1C
1A
1?
1=
1;
19
18
14
1:
09
1%
1&
1'
1(
1)
1*
1,
1<
0;
0*
1>
0=
0)
1@
0?
0(
1B
0A
0'
1D
0C
0&
1$
0%
#200000
b110 "
b11 #
0!
b100 "
b10 #
0T
1S
0K
1J
05
1-
04
08
17
0D
1C
0B
1A
0@
1?
0>
1=
0<
1;
0:
19
0C
0A
0?
0=
0,
1+
0$
1%
1&
1'
1(
1)
0;
1*
0%
0&
0'
0(
0)
#300000
1!
b110 "
b11 #
15
1T
1K
0-
1C
1A
1?
1=
1;
1:
09
14
1<
0;
1%
1&
1'
1(
1)
0*
1,
1>
0=
0)
1@
0?
0(
1B
0A
0'
1D
0C
0&
1$
0%
#400000
b1110 "
b111 #
b1010 "
b101 #
0!
b1000 "
b100 #
0T
0S
1R
0K
0J
1I
05
1-
04
07
0:
19
0D
1C
0B
1A
0@
1?
0>
1=
0<
1;
0C
0A
0?
0,
0+
1*
0$
1%
1&
1'
1(
0=
1)
0%
0&
0'
0(
#500000
1!
b1010 "
b101 #
15
1T
1K
0-
1C
1A
1?
1=
1<
0;
09
18
14
1>
0=
19
1%
1&
1'
1(
0)
0*
1,
1@
0?
0(
1*
1B
0A
0'
1D
0C
0&
1$
0%
#600000
b1110 "
b111 #
0!
b1100 "
b110 #
0T
1S
0K
1J
05
1-
04
08
17
1:
0D
1C
0B
1A
0@
1?
0>
1=
0<
1;
09
1<
0;
0C
0A
0?
0=
0,
1+
0$
1%
1&
1'
1(
1)
1=
0*
0)
0%
0&
0'
0(
1(
#700000
1!
b1110 "
b111 #
15
1T
1K
0-
1C
1A
1?
1>
0=
1;
0:
19
14
1@
0?
0;
1%
1&
1'
0(
1)
1*
1,
1B
0A
0'
0)
1D
0C
0&
1$
0%
#800000
b11110 "
b1111 #
b10110 "
b1011 #
b10010 "
b1001 #
0!
b10000 "
b1000 #
0T
0S
0R
1Q
0K
0J
0I
1H
05
1-
04
07
09
0<
1;
0D
1C
0B
1A
0@
1?
0>
1=
0C
0A
0,
0+
0*
1)
0$
1%
1&
1'
0?
1(
0%
0&
0'
#900000
1!
b10010 "
b1001 #
15
1T
1K
0-
1C
1A
1?
1>
0=
0;
19
18
14
1@
0?
1:
09
1%
1&
1'
0(
0)
1*
1,
1B
0A
1;
0'
0*
1D
0C
0&
1)
1$
0%
